0,新玉たまねぎとイカゲソの煮物,0,,japan/fi_R70.jpg,{"step1":"イカゲソは吸盤を取りよく洗い、半分くらいに切り分けます"\,"step2":"新玉ねぎは食べやすい大きさに切ります"\,"step3":"鍋にめんつゆと日本酒を入れ、イカゲソを入れて点火中火で煮立たせます"\,"step4":"そこに新玉ねぎを入れ柔らかくなるまで煮ていきます。"\,"step5":"残りの野菜を入れ、さっと火をとおし皿に盛ります。"},{"id1":["415"\,150]\,"id2":["197"\,120]\,"id3":["399"\,20]\,"id4":["436"\,15]\,"id5":["559"\,30]\,"id6":["500"\,30]},1
0,サバとピーマンと新玉ねぎの味噌炒め,0,\,16\,18\,19\,,japan/fi_R71.jpg,{"step1":"サバの骨をとり除き、一口大にする"\,"step2":"味噌・砂糖・しょうゆ・酒・みりん・ゴマ油を混ぜてタレをつくる"\,"step3":"フライパンで油・ピーマン・新たまねぎを炒めて取りだす"\,"step4":"サバを入れて両面焼き付け"\,"step5":"酒をふって野菜を戻し入れる"\,"step6":"３の味噌を加え"\,"step7":"ゴマを散らして、出来上がり！"},{"id1":["216"\,175]\,"id2":["500"\,15]\,"id3":["437"\,125]\,"id4":["415"\,100]\,"id5":["529"\,14]\,"id6":["556"\,15]\,"id7":["528"\,4]\,"id8":["532"\,8]\,"id9":["557"\,8]\,"id10":["500"\,8]\,"id11":["524"\,3]\,"id12":["173"\,3]},1
0,エビフライ,0,\,1\,3\,5\,,japan/fi_R72.jpg,{"step1":"エビの尾と一節を残して殻をむき、曲げた背の二節ぐらいのところに竹串を刺して背わたを引き抜く。"\,"step2":"さっと洗い水気をとったら、3本ほど腹に切り込みを入れる。"\,"step3":"背に向かって少しぎゅっと身を押し、まっすぐにする。"\,"step4":"油ハネ防止のため、尾の斜めに沿って2mmほど切り落として、中の水をだす。"\,"step5":"塩・こしょうをして、薄力粉→溶き卵→パン粉の順につける。"\,"step6":"たっぷりの油を170℃くらいに加熱し、エビを入れる。（油が少ないと、衣がつぶれます）"\,"step7":"エビが自分で動くようになり、いい色がついたら上げる"},{"id1":["244"\,200]\,"id2":["530"\,3]\,"id3":["523"\,3]\,"id4":["529"\,500]\,"id5":["14"\,30]\,"id6":["257"\,100]\,"id7":["12"\,10]},1
0,エビチリ,0,\,1\,3\,,china/fi_R73.jpg,{"step1":"無頭エビは皮をむく。背ワタを取り、塩こしょう少々、お酒を入れ片栗粉を入れ馴染ませる。"\,"step2":"フライパンに油をいれ、にんにくをみじん切りにし、フライパンににんにくを入れて香りがしてきたらエビをいれる。"\,"step3":"エビの色が変わって来たらケチャップ、トウバンジャンを入れて完成"},{"id1":["244"\,60]\,"id2":["430"\,5]\,"id3":["540"\,15]\,"id4":["539"\,2]\,"id5":["513"\,15]\,"id6":["530"\,5]\,"id7":["500"\,3]},3
0,カレイのムニエル,0,\,19\,,western/fi_R74.jpg,{"step1":"切り身は、塩コショウし、小麦粉をつける"\,"step2":"スキレットにサラダ油とバターを入れ、溶かし カレイを入れ両面焼く"\,"step3":"仕上げにお醤油をひと回しくらい（大さじ1）を、全体に回しかける"},{"id1":["118"\,150]\,"id2":["530"\,5]\,"id3":["14"\,5]\,"id4":["529"\,15]\,"id5":["547"\,15]\,"id6":["532"\,15]},2
0,さわらの西京焼き,0,\,19\,,japan/fi_R75.jpg,{"step1":"さわらは塩をして、15分くらい置きます。水気が出たらキッチンペーパーでふきとる。味噌・みりん・砂糖・酒を合わせてよく混ぜておく"\,"step2":"トレーなどにラップを大きくひいて、味噌・みりん・砂糖・酒の半分をぬって、さわらをのせ、上から残った味噌・みりん・砂糖・酒をかけ表面にラップで貼りつけます。"\,"step3":"冷蔵庫に半日～1日置きます。クッキングシートを敷いたフライパンで一番弱火で焼いて、野菜も一緒に焼いて出来上がり"},{"id1":["129"\,120]\,"id2":["556"\,4]\,"id3":["557"\,4]\,"id4":["527"\,4]\,"id5":["500"\,5]},1
0,タラのたっぷり野菜あんかけ,0,\,19\,,japan/fi_R76.jpg,{"step1":"たらは塩をして３０分置いたあとキッチンペーパーで水気をとる。"\,"step2":"玉ねぎは薄切りにする。"\,"step3":"人参は千切りにする。"\,"step4":"ピーマンは細切りにする。"\,"step5":"えのきは石突を落とし、半分に切る。"\,"step6":"たらに軽く塩を振り、片栗粉（分量外）をまぶす。沸騰した湯に入れ、全体が白っぽくなり火が通るまでゆでる。"\,"step7":"調味料を沸かし、野菜を加える。弱火で５分ほど煮る。"\,"step8":"水溶き片栗粉でとろみをつける。一度しっかり沸かす。"\,"step9":"皿に魚を盛り、あんをかけて完成です♪"},{"id1":["144"\,100]\,"id2":["415"\,60]\,"id3":["429"\,30]\,"id4":["437"\,40]\,"id5":["179"\,5]\,"id6":["565"\,60]\,"id7":["500"\,10]\,"id8":["557"\,6]\,"id9":["532"\,6]\,"id10":["530"\,3]\,"id11":["513"\,3]},1
0,マグロと豆腐の和風にんにく煮込み大葉添え,0,\,19\,,japan/fi_R77.jpg,{"step1":"大葉は丸めて、千切りにする。"\,"step2":"マグロは、一口大に切る。"\,"step3":"鍋に水と調味料を入れて火にかけ、沸騰したら、マグロを入れる。"\,"step4":"再び沸騰したら、一口大に切った豆腐を入れて、一煮立ちさせる。"\,"step5":"器によそって、大葉を乗せたら完成。"},{"id1":["158"\,50]\,"id2":["91"\,100]\,"id3":["708"\,200]\,"id4":["532"\,15]\,"id5":["500"\,15]\,"id6":["430"\,5]\,"id7":["528"\,15]\,"id8":["404"\,3]\,"id9":["572"\,4]},1
0,鮭と大葉の炊き込みご飯,0,\,16\,17\,,japan/fi_R79.jpg,{"step1":"お米を洗い、通常通りの水加減で浸水30分しておく。鮭の水気をよく拭き取る。"\,"step2":"①のお米の上に、鮭をそのままのせて、酒大さじ２を入れて炊きます。"\,"step3":"炊き上がったら、一度鮭を取り出し、川や骨を取る。"\,"step4":"鮭・刻んだ大葉・炒りゴマをお釜の中で優しく混ぜる。"\,"step5":"お茶碗によそったら完成"},{"id1":["49"\,150]\,"id2":["125"\,100]\,"id3":["400"\,2]\,"id4":["173"\,15]\,"id5":["500"\,8]},1
0,牡蠣フライ,1,\,3\,,western/fi_R80.jpg,{"step1":"ザルに牡蠣を入れて塩を振る。"\,"step2":"殻とかが付いていないが確認しながら、水で数回洗い、水を切る。"\,"step3":"ボールに小麦粉と塩胡椒と水を混ぜて牡蠣につける。"\,"step4":"?に牡蠣を入れる。ボールにパン粉を用意する。"\,"step5":"パン粉をつける。右手にポリ手袋をして?の小麦粉液をつけ、左素手で衣をつける。"\,"step6":"フライパンにサラダ油を入れて、180℃できつね色になったひっくり返し返して両面を揚げて油を切る。"},{"id1":["203"\,50]\,"id2":["530"\,3]\,"id3":["15"\,20]\,"id4":["523"\,2]\,"id5":["708"\,25]},2
0,あさりのカレー風味ピラフ,0,,western/fi_R81.jpg,{"step1":"バターとにんにくを熱しあさり、白ワインを入れ蒸す。一つ開いたら火を止めて全部開くまで放置。"\,"step2":"1を一旦皿に移し、蒸した汁をカップに分けておく。"\,"step3":"2のフライパンを洗わずに分量外の油を入れ玉ねぎとあらかじめ研いだ米を少し透き通るまで炒める。"\,"step4":"2の蒸した汁と水を合わせコンソメ、カレー粉、塩で味を調える。"\,"step5":"あさりの半分を身だけにして加えきのこも加えて蓋をして強火にかける。沸騰したら中火にして10分。途中で中弱火にすると尚良い"\,"step6":"残りの殻付きのあさりを一気に加えすぐ蓋をし10分蒸らして出来上がり"},{"id1":["192"\,100]\,"id2":["547"\,5]\,"id3":["430"\,5]},2
0,あさりのニンニク炒め,1,\,19\,,western/fi_R82.jpg,{"step1":"水500ccに塩を大さじ1入れた後よく混ぜ、あさりを入れ砂抜きします。(あさりは貝同士をこすり合わせ洗っておきます)"\,"step2":"フライパンにバター、にんにくのみじん切り、輪切り鷹の爪を入れ火にかけます。"\,"step3":"しっかり香りを出し、あさりをドバっと入れます。"\,"step4":"ニンニクが半分浸かる位まで水を入れ、強火にかけます。"\,"step5":"貝が開いたら味をみつつ醤油を入れ、お更に盛りつけてカイワレを乗せて完成です"},{"id1":["192"\,250]\,"id2":["430"\,18]\,"id3":["547"\,20]\,"id4":["420"\,1]\,"id5":["531"\,2]\,"id6":["708"\,250]\,"id7":["530"\,8]},2
0,海老とキャベツのオイマヨ炒め,1,\,1\,,western/fi_R83.jpg,{"step1":"海老は背わたを取り、洗って水気を切った後、塩少々（分量外）をもみ込んでおく。"\,"step2":"キャベツを一口大に切る。にんにくはみじん切りに"\,"step3":"熱したフライパンにサラダ油を入れて、にんにくを炒める。"\,"step4":"にんにくの香りが立ってきたらキャベツを入れて炒める。"\,"step5":"キャベツに火が通ってきたら海老も入れて炒める。"\,"step6":"海老の色が変わったらオイスターソース、マヨネーズ、塩、こしょうで味付けして手早く炒め合わせる。"},{"id1":["385"\,150]\,"id2":["229"\,75]\,"id3":["430"\,5]\,"id4":["511"\,100]\,"id5":["555"\,10]\,"id6":["530"\,5]\,"id7":["523"\,5]\,"id8":["529"\,8]},2
0,鰯の蒲焼で簡単南蛮漬け,0,,japan/fi_R84.jpg,{"step1":"いわしはワタをとりのぞき、開いておきます。"\,"step2":"玉ねぎは薄くスライスして、アク抜きをします。水にさらして下さい。３０分くらい。"\,"step3":"アボカドは種をとり、お好みの形にスライスしておきます。"\,"step4":"1に塩、こしょうをふり、米粉をつけます。フライパンに少し油を入れ、いわしを焼きます"\,"step5":"じっくりと、焦げ目をつけて焼きます。ひっくり返して、裏はさっと、焼きます。"\,"step6":"酢と砂糖を混ぜ、2の玉ねぎの水気を切り、お皿にに盛り付けます。"\,"step7":"7にいわし、アボカドをのっけて、完成です。"},{"id1":["110"\,100]\,"id2":["415"\,50]\,"id3":["717"\,5]\,"id4":["523"\,1]\,"id5":["529"\,5]\,"id6":["534"\,250]\,"id7":["528"\,8]\,"id8":["663"\,10]},1
0,速攻でできるかつおとニラの甘辛煮,1,\,19\,,japan/fi_R85.jpg,{"step1":"かつおを、一口サイズに切っておく"\,"step2":"鍋に煮汁を入れて温めます。温まりだしたらかつおを入れてかつおに火を通します。"\,"step3":"サッとニラを加えて軽く火にかけます。"\,"step4":"ずっと中火位です。"},{"id1":["115"\,100]\,"id2":["428"\,100]\,"id3":["404"\,5]\,"id4":["531"\,8]\,"id5":["500"\,8]\,"id6":["528"\,3]},1
0,メカジキ照り焼き,0,\,19\,,japan/fi_R86.jpg,{"step1":"しょうがを摩り下ろして汁をとる"\,"step2":"しょうが汁、醤油、みりん、砂糖をわぜ合わせ旨タレを作る"\,"step3":"カジキ切り身にフォークなどで、ぷすぷす穴を開ける。(味をしみこませる為です)"\,"step4":"ビニール袋に旨タレとメカジキ切り身を入れ１時間ぐらい冷蔵庫に入れ寝かしておく。"\,"step5":"フライパンを火にかけサラダ油を入れ、メカジキ切り身を焼いていく。(残った旨タレは後で使います)油はね注意です！"\,"step6":"焦げないようにしっかり両面焼いていく。"\,"step7":"焦げ目がついたら、残った旨タレを入れ煮立ったら、メカジキ切り身を器にもりつける。"\,"step8":"旨タレを焦がさないようにトロミが出るまで煮詰め、焼いたメカジキ切り身にかけて完成です！"},{"id1":["114"\,64]\,"id2":["529"\,5]\,"id3":["404"\,4]\,"id4":["531"\,22]\,"id5":["557"\,22]\,"id6":["528"\,8]},1
0,フライパンで簡単！鮭マヨソテー,0,\,17\,6\,,western/fi_R87.jpg,{"step1":"マヨネーズ、牛乳、粉チーズ、マスタード、ニンニクチューブを混ぜる"\,"step2":"皮骨を取り油を敷かずにフライパンに置いて中火"\,"step3":"鮭の油が出てきたらソースを乗せて蓋をして6分蒸し焼き"},{"id1":["125"\,100]\,"id2":["555"\,8]\,"id3":["363"\,3]\,"id4":["351"\,3]\,"id5":["571"\,3]\,"id6":["430"\,3]},2
0,ぱぱっと！ツナの炊き込みご飯,0,,japan/fi_R88.jpg,{"step1":"研いだお米に、ツナ缶・なめ茸を汁ごと入れる。"\,"step2":"麺つゆを入れ、通常通りの水加減で、炊飯器で炊く。"},{"id1":["49"\,150]\,"id2":["146"\,70]\,"id3":["650"\,5]\,"id4":["559"\,15]},1
0,アジと野菜のマヨ黒胡椒和え,1,,western/fi_R89.jpg,{"step1":"アジの骨を取ってて塩胡椒をする、油少々で皮目を下にして2分焼く反して2分焼く"\,"step2":"ブロッコリーを小さく切りかぼちゃを7mm程に切るさっと洗ってレンジ600w3分チンして水気を切る"\,"step3":"耐熱皿にかぼちゃ、ブロッコリー、アジを重ねマヨネーズ、オリーブオイル、胡椒を掛けレンジ600w2分チン"},{"id1":["100"\,27]\,"id2":["522"\,5]\,"id3":["440"\,20]\,"id4":["380"\,20]\,"id5":["555"\,5]\,"id6":["512"\,5]\,"id7":["522"\,5]},2
0,海老と 白菜 トマトの 塩炒め,1,\,1\,,western/fi_R90.jpg,{"step1":"白菜は、3cm幅のざく切りにし、洗って水をきる。"\,"step2":"トマトはくし切り、椎茸は薄くスライスする。"\,"step3":"フライパンにサラダ油をひいて熱し、野菜をザッと炒めてから蓋をして、弱火で蒸し焼きにする。"\,"step4":"野菜がしんなりしたら、調味料と海老を入れて、強火で炒める。"\,"step5":"海老に火が通ったら、火を止める。"},{"id1":["229"\,30]\,"id2":["433"\,40]\,"id3":["423"\,50]\,"id4":["182"\,20]\,"id5":["529"\,5]\,"id6":["707"\,3]\,"id7":["511"\,4]\,"id8":["500"\,5]\,"id9":["430"\,5]\,"id10":["522"\,5]},2
0,塩鮭のミルクパッツァ,0,\,6\,17\,,western/fi_R91.jpg,{"step1":"しめじは食べやすい大きさにほぐし、スナップエンドウ（絹さや）は筋をとっておきます。ミニトマトは半分に切ります。"\,"step2":"薄切りにしたにんにくとオリーブオイルをフライパンで熱し、香りが出たら塩鮭を焼きます。"\,"step3":"焼き色がついたら、１の野菜、あさり、明治おいしい牛乳を加えます。蓋をしてあさりが開くまで蒸します。"\,"step4":"バターを加えて絡め、ブラックペッパー（又はこしょう）で味を調えます。"},{"id1":["363"\,75]\,"id2":["163"\,71]\,"id3":["192"\,100]\,"id4":["183"\,25]\,"id5":["406"\,5]\,"id6":["443"\,20]\,"id7":["430"\,5]\,"id8":["512"\,5]\,"id9":["547"\,5]\,"id10":["522"\,5]},2
0,かつおと豆腐の和風煮,1,\,19\,,japan/fi_R92.jpg,{"step1":"椎茸は、一口大に切る。"\,"step2":"かつおは、1cm幅に切る"\,"step3":"鍋に水と調味料を入れて火にかけ、沸騰したら、一口大に切った豆腐と、かつお、椎茸を入れる"\,"step4":"再び沸騰したら、弱火で15分煮たら完成"},{"id1":["115"\,100]\,"id2":["91"\,100]\,"id3":["182"\,8]\,"id4":["708"\,100]\,"id5":["531"\,11]\,"id6":["500"\,11]\,"id7":["557"\,4]\,"id8":["528"\,4]\,"id9":["565"\,2]},1
0,ぶりの生姜焼きガーリックライス,0,\,19\,,western/fi_R93.jpg,{"step1":"ブリを1㎝幅に切り、醤油、生姜、はちみつを混ぜた汁に5分つけ置きます。"\,"step2":"中火にかけたフライパンにバターを入れ、食べやすいサイズに切ったエリンギを炒めます。"\,"step3":"エリンギは両面に少し焼き目がつくまで焼いたら、お皿に取り出しておきます"\,"step4":"バターが残っているフライパンは中火にかけたまま、ニンニクのスライス、オリーブオイルを入れます。"\,"step5":"中火にかけたフライパンに玄米ご飯を入れて、軽く炒めます。"\,"step6":"別のフライパンを中火にかけ、漬けておいた①のブリを両表面だけを軽く炒めます。"\,"step7":"お皿に盛りつけて完成です。"},{"id1":["154"\,100]\,"id2":["180"\,20]\,"id3":["547"\,5]\,"id4":["430"\,5]\,"id5":["512"\,5]\,"id6":["49"\,150]\,"id7":["404"\,5]\,"id8":["531"\,22]\,"id9":["549"\,8]},2
0,簡単サーモン胡麻漬け,1,\,16\,17\,19\,,japan/fi_R94.jpg,{"step1":"サーモンをお好みサイズに切り、調味料に漬けて５?10分程置けばOK。"\,"step2":"完成！"},{"id1":["125"\,75]\,"id2":["173"\,5]\,"id3":["531"\,5]\,"id4":["557"\,5]},1
0,あんかけナポリタン焼きそば,0,\,3\,22\,,western/no_R21.jpg,{"step1":"焼きそば麺は袋に軽く切れ目を入れレンジで1分程、加熱しておく"\,"step2":"フライパンに油を熱し、焼きそば麺以外の具材を炒める。"\,"step3":"具材に火が通ったら水、ケチャップ、鶏ガラスープの素を加えて軽く煮込む。フツフツと煮立ってきたら焼きそば麺を入れ、しっかりとほぐす。"\,"step4":"3に水溶き片栗粉を加えてとろみをつける。"\,"step5":"味が薄いようだったら軽く塩コショーを加えて味をととのえたら完成"},{"id1":["46"\,120]\,"id2":["415"\,30]\,"id3":["437"\,35]\,"id4":["249"\,100]\,"id5":["540"\,25]\,"id6":["569"\,2]\,"id7":["530"\,5]\,"id8":["513"\,5]\,"id9":["529"\,5]},2
0,にんにく焼きそば,0,\,3\,14\,19\,,china/no_R22.jpg,{"step1":"にんにくを薄切りにして、油で色つく程度に炒める"\,"step2":"牛肉を一口大に切り、１と共にいためる。"\,"step3":"牛肉の色が変わってきたら、麺とにんにくの芽を加えて炒める"\,"step4":"オイスターソース、ウスターソース、醤油を加えて混ぜる"},{"id1":["430"\,5]\,"id2":["46"\,120]\,"id3":["430"\,5]\,"id4":["511"\,7]\,"id5":["535"\,7]\,"id6":["532"\,7]\,"id7":["279"\,75]\,"id8":["529"\,5]},3
0,ぺペロン焼きそば,0,\,3\,,china/no_R23.jpg,{"step1":"ニンニクはスライス、キャベツは小さめのざく切り、玉ねぎは7ミリ幅くらいに切っておく"\,"step2":"フライパンに火をつけて、オリーブオイルを入れてニンニクを焼いて香りを出す。鷹の爪も一緒に焼く。"\,"step3":"キャベツと玉ねぎを入れて炒め、火が通ったら麺を揉んでから入れる"\,"step4":"塩で味をつけ、水を入れて蒸す。"\,"step5":"麺がふっくらしたら強火で水分を少し飛ばして、火を止める。"},{"id1":["46"\,120]\,"id2":["430"\,5]\,"id3":["415"\,30]\,"id4":["385"\,30]\,"id5":["512"\,5]\,"id6":["530"\,5]\,"id7":["399"\,1]},3
0,ゆず鶏うどん,0,\,3\,19\,,japan/no_R24.jpg,{"step1":"鶏むね肉が分厚い場合は火が通りにくいので観音開きにするか真ん中に切り込みを入れて火が通るように調整しておいてください。"\,"step2":"鍋に塩と水を入れて沸かし沸騰したら鶏むね肉を入れて中火にし蓋をします。もう一度お湯が沸騰してから1分茹でて火を止めます。"\,"step3":"アクを取って、そのまま1時間位置いて冷まします。ここまで準備しておいてほったらかしておくと楽チンです。"\,"step4":"急いでいる場合は少し堅くなりますが、茹でて火を通してしまって下さいね。"\,"step5":"そのまま冷まして火が通った鶏むね肉の皮の部分にゆず胡椒を5㎝位塗ります(ゆず胡椒が苦手な方は塩をふってください。"\,"step6":"魚焼きグリルで表面に焼き目をつけます。火は通っているので強火で短時間焼きます。あっという間なので目を離さないで下さいね。"\,"step7":"あまり焼くと水分が無くなってパサパサになるので短時間で焼き目だけ付けてくださいね。フライパンで焼き色をつけてもイイですよ"\,"step8":"ゆずはキレイに洗って、皮を薄く削ぎ切りします。"\,"step9":"削ぎ切りした皮を細切りします。出来るだけ細く切って下さい。いい香りがしますよ"\,"step10":"焼き目をつけた鶏むね肉を細く切ります。あっさり仕立てで鶏むね肉にしています。もも肉だとコク旨仕上がりになると思います。"\,"step11":"鍋のゆで汁を沸かし、だしの素と＊の調味料を入れます。味を見て味はお好みで調整してくださいね"\,"step12":"だし汁にうどんを入れて沸かし(手間でなければうどんを別鍋で茹でて)人数分に分けて器に入れます。"\,"step13":"鶏肉とゆずを盛り付けて召し上がれ"},{"id1":["54"\,245]\,"id2":["299"\,80]\,"id3":["530"\,5]\,"id4":["514"\,5]\,"id5":["532"\,15]\,"id6":["557"\,15]\,"id7":["500"\,15]\,"id8":["522"\,5]},1
0,うどんdeカルボナーラ,0,\,3\,22\,6\,,western/no_R25.jpg,{"step1":"ベーコンを短冊に切り、オリーブオイルで炒める。"\,"step2":"ベーコンが炒まったら、茹でて水気をしっかりきったうどん・明治北海道十勝フレッシュ100～黒胡椒までを加えてさらに炒める。"\,"step3":"味が整ったらお皿に盛り、最後に上から黒胡椒を少しかけて出来上がり。"},{"id1":["54"\,245]\,"id2":["267"\,50]\,"id3":["364"\,100]\,"id4":["559"\,30]\,"id5":["530"\,5]},2
0,豚バラネギ塩焼きそば,0,\,3\,22\,,china/no_26.jpg,{"step1":"白ネギを切って、タッパーなどの容器に入れてごま油、塩(ネギ塩用)、味の素を加えて冷蔵庫で1時間ほど寝かす。"\,"step2":"フライパンで切った豚バラを入れる。脂身が多い場合は油は不要。塩で軽く味付け。"\,"step3":"焼きそば麺、1のネギ塩を加えて炒める。麺をほぐすのに少し水を入れる。全体的に焼けたら完成"},{"id1":["46"\,120]\,"id2":["311"\,100]\,"id3":["392"\,5]\,"id4":["524"\,100]\,"id5":["530"\,5]},3
0,パクチー釜玉そうめん,0,\,3\,5\,,japan/no_R27.jpg,{"step1":"鍋でたっぷりの水（分量外）を沸かしている間に、パクチーを粗みじん切りに。"\,"step2":"さらに、お椀にたまご、ナンプラー、鶏ガラスープの素、チリソースの材料をすべて入れてよく混ぜておく。"\,"step3":"お湯が沸いたら、そうめんを茹でる。軽?く泳がせるように……。お好みの柔らかさになったら、引き上げて、すぐにお椀へ"\,"step4":"湯切りは不要！ 茹で汁も一緒に入るくらいでOKです。そうめんが熱いうちによ?く混ぜて、パクチーとトッピングを乗せて完成"},{"id1":["22"\,50]\,"id2":["711"\,5]\,"id3":["257"\,50]\,"id4":["712"\,5]\,"id5":["569"\,5]\,"id6":["537"\,15]},1
0,そうめんの塩麹カッペニーリ風,0,\,3\,,japan/no_R28.jpg,{"step1":"そうめんは固めに茹で上げ、流水で洗う。"\,"step2":"青しそはせん切りしたら、すぐに油に浸ける。"\,"step3":"②に角切りしたトマト、塩麹を加えて混ぜる。"\,"step4":"頂く直前に水気を切ったそうめんと③を和える"},{"id1":["22"\,50]\,"id2":["423"\,10]\,"id3":["400"\,5]\,"id4":["713"\,10]\,"id5":["529"\,10]},1
0,冷しゃぶ冷麺,0,\,3\,22\,5\,,china/no_R29.jpg,{"step1":"豚肉は、グラグラ沸騰した湯の中に入れると硬くなるので、火を止めた中に入れて色が変わるまで置きます。"\,"step2":"規定通り麺を茹で、具材をトッピングしたら、肉の上にマヨネーズをかけていただきます。"},{"id1":["714"\,230]\,"id2":["386"\,40]\,"id3":["423"\,10]\,"id4":["452"\,30]\,"id5":["715"\,40]\,"id6":["568"\,5]\,"id7":["555"\,5]},3
0,冷やしかけそうめん,0,\,1\,3\,,japan/no_R30.jpg,{"step1":"そうめんは茹でて冷水にさらし、水気を切って器に盛る。"\,"step2":"エビはカラをむき、背わたを抜いて塩茹でする"\,"step3":"レタスは細切り、ねぎは小口切りにする。"\,"step4":"（1）にエビ、レタスをのせ、混ぜ合せたAをかけてねぎを散らす。"},{"id1":["22"\,50]\,"id2":["240"\,40]\,"id3":["452"\,30]\,"id4":["392"\,5]\,"id5":["530"\,5]\,"id6":["514"\,40]},1
0,牛肉とキムチのスタミナまぜ素麺,0,\,3\,14\,,japan/no_R31.jpg,{"step1":"貝割れは根を切り洗います。きゅうりは縦半分→斜め薄切りにし塩もみをしてから軽く水で洗います。どちらも水分を良く切ります。"\,"step2":"少量の油またはごま油(分量外)を熱したフライパンで一口大に切った牛肉を炒め色が変わってきたら焼肉のタレを加え絡め炒めます"\,"step3":"牛肉をボールに移しそのままのフライパンでキムチをサッと炒めます。"\,"step4":"素麺を茹でて冷水で洗いしめて水分を良く切ります。ごま油を絡めます。"\,"step5":"牛肉の入ったボールにキムチ、きゅうりは、貝割れ、素麺を加えて均一に混ぜ合わせます。"\,"step6":"お皿に盛り付けてすりごまをふり刻みねぎ、糸唐辛子をトッピングして出来上がりです"},{"id1":["279"\,75]\,"id2":["635"\,40]\,"id3":["376"\,25]\,"id4":["386"\,80]\,"id5":["716"\,20]\,"id6":["530"\,5]\,"id7":["22"\,50]\,"id8":["524"\,5]},1
0,豚挽肉とレタスの「こく」冷やし中華,0,\,16\,22\,,japan/no_R32.jpg,{"step1":"ごま油でひき肉豚、しいたけ、味付きメンマを炒め、摺り生姜を入れ、更に炒める。"\,"step2":"完全に炒まったら、オイスターソース、醤油、砂糖、食べるラー油の調味料を入れ炒め冷ます"\,"step3":"中華麺を茹で水洗いする。レタス、きゅうりを皿に敷き麺を盛り、肉とたまごを盛り、パプリカ又はトマトのみじん切りをかける。"\,"step4":"たれをかける"},{"id1":["312"\,75]\,"id2":["182"\,10]\,"id3":["413"\,15]\,"id4":["524"\,8]\,"id5":["404"\,8]\,"id6":["511"\,5]\,"id8":["312"\,75]\,"id9":["182"\,10]\,"id10":["413"\,15]\,"id11":["524"\,8]\,"id12":["404"\,8]\,"id13":["511"\,5]\,"id14":["531"\,2]\,"id15":["528"\,2]\,"id16":["561"\,2]\,"id17":["257"\,80]\,"id18":["452"\,20]\,"id19":["386"\,10]\,"id20":["436"\,5]\,"id21":["46"\,200]},1
0,半熟卵黄♪ごまスコそぼろの月見冷やし中華,0,\,5\,16\,20\,,western/no_R33.jpg,{"step1":"みつばはお湯を掛けて水気を絞り、ざく切りにする。トマトは2個分をスライスする。これらは冷蔵庫で冷やしておく。"\,"step2":"残りのトマトは角切りに、にんじんは粗みじんに、にんにくはみじん切りにする。"\,"step3":"フライパンにオリーブオイルをひきにんにくを炒める。香りがたったらにんじんを加え火が通るまで炒める。"\,"step4":"鶏ひき肉を加え、ほぐしながら油が透き通るまで炒める。トマトを加えて、全体が馴染むまでさっと炒める。"\,"step5":"仕上げに塩、コショー、バジル、ごまスコを加えて混ぜ、ボールに取り出し粗熱を取る。お好みで冷蔵庫でしっかり冷やす"\,"step6":"ゆるめの半熟の目玉焼きを焼き、取り出して粗熱を取る。お好みで冷蔵庫で冷やす。"\,"step7":"冷やし中華の麺を表示通り茹で、流水でぬめりを落とし、氷水で締める。水気をしっかり切り、皿に麺を盛り付ける。"\,"step8":"トマト、みつばを盛り付け、5のそぼろをたっぷり掛ける。仕上げに目玉焼きを載せ、まわりに添付のスープを掛ける。"},{"id1":["52"\,250]\,"id2":["258"\,60]\,"id3":["298"\,100]\,"id4":["423"\,10]\,"id6":["52"\,250]\,"id7":["258"\,60]\,"id8":["298"\,100]\,"id9":["423"\,10]\,"id10":["378"\,20]\,"id11":["429"\,15]\,"id12":["430"\,5]\,"id13":["716"\,5]\,"id14":["530"\,3]\,"id15":["523"\,3]\,"id16":["434"\,5]\,"id17":["512"\,5]},3
0,鉄パンで鶏皮と人参の千切りの焼きうどん,0,\,22\,,japan/no_R34.jpg,{"step1":"人参はスライサーを使って千切りにしておく。"\,"step2":"鶏皮はキッチンナイフで食べやすいサイズに切り、塩胡椒を振り、しばらく置く。"\,"step3":"うどんは袋の上を切り、電子レンジで2分ほど加熱。"\,"step4":"鉄パンを熱し、鶏皮を投入。強火でしばらく炒める。鶏皮から脂が十分に出れば、人参を投入。良くかき混ぜる。"},{"id1":["54"\,280]\,"id2":["429"\,15]\,"id3":["302"\,120]\,"id4":["530"\,5]\,"id5":["511"\,5]},1
0,焼きそーめんの卵中華あんかけ,0,\,5\,16\,,china/no_R35.jpg,{"step1":"サラダ油を入れて、一口サイズにしたそーめんを弱火?中火で両面キツネ色に焼く。そーめんは水でほぐさず、そのまま使って下さい"\,"step2":"キツネ色になったらゴマ油を入れてサッと焼いてお皿に盛る。"\,"step3":"サラダ油を入れて卵を少し半熟くらいに焼く。(お好みの焼き加減でOKです)。そーめんの上にのせる。"\,"step4":"水と香味ペーストを入れて温める。熱くなったら水溶き片栗粉を混ぜながら入れてフツフツと煮立たせる。"\,"step5":"あんをかけてネギを飾る。"},{"id1":["22"\,80]\,"id2":["529"\,10]\,"id3":["524"\,5]\,"id4":["258"\,60]\,"id5":["708"\,100]\,"id6":["707"\,5]\,"id7":["513"\,15]\,"id8":["393"\,5]},3
0,豚肉とナスのつけ汁,0,\,16\,22\,23\,,japan/no_R36.jpg,{"step1":"豚肉を袋に入れ、少量の牛乳をもみ混んで冷蔵庫で20分くらい寝かせる。"\,"step2":"ナスは乱切りにし、水に漬けてあく抜きをする"\,"step3":"玉ねぎは1cm幅にcutする。"\,"step4":"フライパンに油をひき、豚肉を炒める。"\,"step5":"色が変わってきたら、キノコ、玉ねぎ、ナスを加え、油がなじんだら水を加える。"\,"step6":"沸いたら弱火にし、ごま油以外の調味料を加える。"\,"step7":"全てに火が通ったら、ごま油を加える。"\,"step8":"うどんは茹でて水で〆て下さい"},{"id1":["311"\,100]\,"id2":["363"\,10]\,"id3":["189"\,30]\,"id4":["415"\,50]\,"id5":["425"\,30]\,"id6":["708"\,200]\,"id7":["707"\,5]\,"id8":["500"\,5]\,"id9":["557"\,2]\,"id10":["532"\,2]\,"id11":["531"\,2]\,"id12":["404"\,2]\,"id13":["559"\,2]\,"id14":["524"\,2]\,"id15":["529"\,2]\,"id16":["54"\,280]},1
0,バター醤油の焼きうどん,0,,japan/no_R37.jpg,{"step1":"玉ねぎは薄くスライスする。"\,"step2":"人参は薄い短冊切り、しめじは石突きを切り落とす"\,"step3":"フライパンにバターを溶かし、野菜を炒める。"\,"step4":"野菜がしんなりするまで、常に混ぜながら炒める。"\,"step5":"野菜がしんなりしたら、うどんを入れて、水を振りかける。"\,"step6":"再び火をつけ、麺をほぐしながら炒める。"\,"step7":"麺がほぐれたら、一旦火を止め、調味料を入れる。"\,"step8":"再び火をつけ、調味料を絡めながら炒める。"},{"id1":["54"\,280]\,"id2":["708"\,30]\,"id3":["415"\,20]\,"id4":["429"\,20]\,"id5":["183"\,5]\,"id6":["547"\,20]\,"id7":["531"\,20]\,"id8":["528"\,15]\,"id9":["522"\,3]},1
0,キレイなお月見にゅう麺,0,\,5\,22\,,japan/no_R38.jpg,{"step1":"タップリのお湯で素麺を茹でます"\,"step2":"白だしと水を沸騰させ、豚肉とシメジを入れて灰汁が出たら取り、ざく切りの水菜を入れたら火を止めて蓋をします。"\,"step3":"茹であがった素麺を湯切りして水で洗ったら丼に入れて、その上で卵を割り、卵白だけを入れます。薬味は切っておいてね。"\,"step4":"③の卵白の上に②を流し入れ、薬味を飾って卵黄を静かに置いたら出来上がりです。"},{"id1":["22"\,50]\,"id2":["311"\,50]\,"id3":["387"\,20]\,"id4":["183"\,20]\,"id5":["257"\,80]\,"id6":["566"\,45]\,"id7":["708"\,200]\,"id8":["420"\,5]},1
0,鮭じゃがバター炒飯風みそラーメン。,0,\,5\,17\,,japan/no_R39.jpg,{"step1":"サッポロ一番みそラーメンを袋の上から叩いて適当に砕いておく。"\,"step2":"じゃが芋はよく洗い皮をむいて乱切りにし、耐熱容器に入れ、軽くラップをし約２分柔らかくなるまでレンジで加熱する"\,"step3":"鮭もじゃが芋と同じくらいの大きさに切り、キャベツは少し小さめに切っておく。"\,"step4":"中火にかけたフライパンにバターを入れ、鮭とキャベツを入れ、炒める。"\,"step5":"火が通て来たら１とお水を入れ、水気がなくなるまでしばらく炒める"\,"step6":"５にじゃが芋を入れ、よく混ぜさらに炒める。"\,"step7":"少しだけ放置して底におこげができたら器に盛り、青ネギを散らして出来上がり"},{"id1":["3"\,100]\,"id2":["547"\,10]\,"id3":["125"\,100]\,"id4":["59"\,40]\,"id5":["3"\,100]\,"id6":["547"\,10]\,"id7":["125"\,100]\,"id8":["59"\,40]\,"id9":["385"\,30]\,"id10":["708"\,200]\,"id11":["393"\,5]},1
0,鶏そば,0,\,4\,20\,,japan/no_R40.jpg,{"step1":"長ネギは3～4㎝程度の長さに切る"\,"step2":"フライパンを油を入れずに火にかけ、鶏肉を皮のほうから焼いていく"\,"step3":"鶏肉から油が出始めたら長ネギも加える"\,"step4":"鍋に水とめんつゆを入れて火にかける"\,"step5":"鶏肉の皮目にしっかり焼き目がついたら、ひっくり返して焼く"\,"step6":"反対側も焼き目がついたら取り出し少しそのままおいておく"\,"step7":"長ネギは軽く焦げ目がついたら、そのままそばつゆの鍋に入れる"\,"step8":"そばつゆとは別に湯を沸しそばを茹でる"\,"step9":"鶏肉は薄くスライスし、火にかけたそばつゆに加えさっと火を通す"\,"step10":"器にそばを盛り上から8をかける"},{"id1":["53"\,280]\,"id2":["301"\,100]\,"id3":["424"\,30]\,"id4":["559"\,60]\,"id5":["708"\,300]},1
0,豚しゃぶカレーうどん,0,\,5\,16\,,japan/no_R48.jpg,{"step1":"鍋につゆと水を入れて沸騰させ、豚肉をしゃぶしゃぶしてお皿に取り出し、残ったつゆのアクを取り除く"\,"step2":"うどんを500wのレンジで1分加熱して1に加え、カレー粉を加えて麺をほぐしながら軽く煮込む"\,"step3":"丼に2を入れ、1で取り出した豚肉を載せて真ん中に卵黄を落とし、ネギを添えて、白いりごまを振ったら、出来上がり"},{"id1":["311"\,80]\,"id2":["54"\,280]\,"id3":["514"\,60]\,"id4":["708"\,180]\,"id5":["517"\,3]\,"id6":["392"\,3]\,"id7":["257"\,80]\,"id8":["173"\,3]},1
0,冷たいわかめおろしうどん,0,\,16\,,japan/no_R42.jpg,{"step1":"麺つゆと氷を丼に直接入れうどんつゆを作る。"\,"step2":"麺つゆを計ったカップに水を入れ、わかめを戻す"\,"step3":"大根、生姜はおろし水気をよく絞る。ネギは小口切り"\,"step4":"冷凍うどんを表示通りにレンジでチンする"\,"step5":"麺は冷水でよくもみ洗いする"},{"id1":["54"\,280]\,"id2":["559"\,50]\,"id3":["708"\,30]\,"id4":["321"\,5]\,"id5":["411"\,20]\,"id6":["404"\,5]\,"id7":["392"\,10]\,"id8":["173"\,3]},1
0,胡麻香る！豚肉と大根おろしのぶっかけ素麺,0,\,16\,22\,,japan/no_R43.jpg,{"step1":"大根をおろします。汁も使うので、捨てないでください。"\,"step2":"フライパンに胡麻油をひき、みじん切りにした玉ネギ・しいたけを炒めます。"\,"step3":"玉ネギが透明になったら、細かく切った豚肉を入れて炒めます。しっかり火を通します。"\,"step4":"素麺を茹でて水で洗って水気をきり、器に盛ります。"\,"step5":"素麺の上に汁ごと大根おろし・炒めた豚肉をのせます。"\,"step6":"豚肉に上にきざみ海苔・生姜・白胡麻をのせ、麺つゆをかけたら完成です。"\,"step7":"大根おろしの汁があるので、水は入れませんでした。"},{"id1":["312"\,200]\,"id2":["415"\,30]\,"id3":["182"\,30]\,"id4":["524"\,15]\,"id5":["22"\,200]\,"id6":["334"\,5]\,"id7":["708"\,3]\,"id8":["173"\,5]},1
0,明太とろろアレンジそうめん,0,\,25\,,japan/no_R44.jpg,{"step1":"山芋の皮を剥き、おろし金ですりおろす。"\,"step2":"明太子を包丁で切りこみをいれ、包丁の背の部分を使いながら中身と取り出す。"\,"step3":"とろろと明太子を容器に入れ、混ぜ合わせる。"\,"step4":"そうめんを食材の作り方に沿って茹で、よく冷やし、水をきる。"\,"step5":"そうめんを皿に入れ、そうめんつゆを入れる。"\,"step6":"とろろ明太を上からかける"\,"step7":"大葉を半分にカットし、くるくると巻き、それを端から千切りにする。"\,"step8":"大葉を中央に盛り付ける。"},{"id1":["65"\,50]\,"id2":["218"\,25]\,"id3":["22"\,280]\,"id4":["65"\,50]\,"id5":["218"\,25]\,"id6":["22"\,280]\,"id7":["558"\,100]\,"id8":["460"\,20]},1
