0,鶏塩うどん,0,\,20\,,japan/no_R53.jpg,{"step1":"鍋に水、塩、鶏ガラスープの素を入れて煮立たせる"\,"step2":"煮立ったら鶏肉、長ねぎを加えてアクを取る"\,"step3":"鶏肉に火が通り、野菜が柔らかくなったら"\,"step4":"うどんを加えて出来上がり"},{"id1":["301"\,60]\,"id2":["54"\,280]\,"id3":["424"\,5]\,"id4":["708"\,500]\,"id5":["530"\,5]\,"id6":["707"\,8]},1
0,とりたまうどん,0,\,5\,20\,,japan/no_R52.jpg,{"step1":"鶏肉は一口大に切る。"\,"step2":"鍋にお水＋顆粒だしを入れて沸騰させる。"\,"step3":"2) の鍋に 1) の鶏肉を入れて、あくをすくいながら火を通す。"\,"step4":"3) の鍋にしょうゆとみりんを入れ、ゆでうどんを入れる。"\,"step5":"ゆでうどんが食べごろになるちょっと前に斜め薄切りにしたネギとたまごを入れる。"\,"step6":"たまごがいい具合に固まってきたら火からおろす"},{"id1":["54"\,280]\,"id2":["301"\,50]\,"id3":["531"\,25]\,"id4":["557"\,25]\,"id5":["565"\,6]\,"id6":["708"\,400]\,"id7":["424"\,5]\,"id8":["258"\,20]},1
0,メンマ坦々うどん,0,\,16\,22\,,chaina/no_R51.jpg,{"step1":"鍋に水をいれ、鶏がらスープの素、味噌、練りごま、すりごまを入れてスープを作ります。"\,"step2":"冷凍うどんを、電子レンジで解凍しておく。（または、茹でておく。）"\,"step3":"フライパンにごま油を熱し、豚ひき肉を炒め、色が変わり始めたら、砂糖、醤油、味噌を加え味付けし、メンマをいれて更に炒める。"\,"step4":"どんぶりに①のスープ、②のうどんをいれ、③の具をのせる。ねぎのみじん切りを飾り、好みでラー油をかけて出来上がり。"},{"id1":["54"\,280]\,"id2":["413"\,100]\,"id3":["298"\,60]\,"id4":["531"\,5]\,"id5":["531"\,5]\,"id6":["556"\,5]\,"id7":["424"\,5]\,"id8":["708"\,300]\,"id9":["707"\,8]\,"id10":["173"\,10]\,"id11":["561"\,3]},3
0,力うどん,0,,japan/no_R50.jpg,{"step1":"乾麺をたっぷりの湯で、麺が回転する位の火力で茹でま水にさらし、ザルにあげておくす。"\,"step2":"だし汁、薄口しょうゆ、みりん、砂糖を煮立たせ、最後に顆粒出しの素を小匙４/１位入れる。"\,"step3":"白ネギ、しめじ等を入れ1～2分煮る。"\,"step4":"うどんと、柔らかくした餅を入れ一煮立ちしたら出来上がり。"},{"id1":["54"\,280]\,"id2":["565"\,500]\,"id3":["531"\,25]\,"id4":["557"\,25]\,"id5":["528"\,3]\,"id6":["392"\,2]},1
0,和風ツナのさっぱり焼きうどん,0,\,16\,,japan/no_R49.jpg,{"step1":"玉ねぎは薄切りにし、しめじは石づきを落として小房に分け、大葉は千切りにする。"\,"step2":"フライパンにごま油を熱し、中火で玉ねぎ、しめじを炒める。玉ねぎが透き通ったら、うどんを加えて軽くほぐす。"\,"step3":"すぐにツナ缶（汁ごと）と酢を加え、ほぐしながら炒めて汁気を飛ばす。"\,"step4":"汁気が飛んだら火を止めて、めんつゆ、すりごま、大葉を加えてよく混ぜる。器に盛って焼き海苔をちぎりながら散らして完成"},{"id1":["145"\,40]\,"id2":["415"\,50]\,"id3":["183"\,50]\,"id4":["54"\,280]\,"id5":["524"\,15]\,"id6":["534"\,15]\,"id7":["559"\,15]\,"id8":["173"\,3]\,"id9":["460"\,3]},1
0,豚しゃぶカレーうどん,0,\,5\,16\,,japan/no_R48.jpg,{"step1":"鍋につゆと水を入れて沸騰させ、豚肉をしゃぶしゃぶしてお皿に取り出し、残ったつゆのアクを取り除く"\,"step2":"うどんを500wのレンジで1分加熱して1に加え、カレー粉を加えて麺をほぐしながら軽く煮込む"\,"step3":"丼に2を入れ、1で取り出した豚肉を載せて真ん中に卵黄を落とし、ネギを添えて、白いりごまを振ったら、出来上がり"},{"id1":["311"\,80]\,"id2":["54"\,280]\,"id3":["514"\,60]\,"id4":["708"\,180]\,"id5":["517"\,3]\,"id6":["392"\,3]\,"id7":["257"\,80]\,"id8":["173"\,3]},1
0,桜えびの塩焼きそば,0,\,1\,22\,,japan/no_R47.jpg,{"step1":"塩、砂糖、鶏ガラスープの素、料理酒、水を合わせる"\,"step2":"小松菜は茎の部分は3㎝程度の長さ、葉の部分は1㎝程度のざく切りにします。"\,"step3":"にんじんは太めの千切り、きくらげは小松菜の茎と同じ程度の幅に切ります。"\,"step4":"フライパンにサラダ油を熱し、2の小松菜の葉以外を入れ、1分ほど炒めます。"\,"step5":"続いて桜えびと小松菜の葉の部分を加え、しんなりするまで炒めます。"\,"step6":"麺を加え箸でほぐしながら1分ほど炒めます。"\,"step7":"合わせておいた塩ダレを一気に加え、汁気が飛ぶまで1分程度炒めます。"\,"step8":"お皿にもりつけて完成"},{"id1":["242"\,5]\,"id2":["52"\,280]\,"id3":["418"\,20]\,"id4":["429"\,10]\,"id5":["181"\,15]\,"id6":["529"\,8]\,"id7":["530"\,5]\,"id8":["528"\,5]\,"id9":["707"\,5]\,"id10":["500"\,15]\,"id11":["708"\,15]},1
0,山菜蕎麦,0,\,4\,5\,,japan/no_R46.jpg,{"step1":"蕎麦を茹で水洗ぃしてから丼に盛る時真ん中にクボミを作りその上で卵を割り白身を入れて黄身を分けておく。"\,"step2":"山菜をめんつゆに入れて温めてぃる間に葱や茗荷・大葉等の薬味、かにかまを切る。"\,"step3":"最初に山菜入りのめんつゆを流し入れ黄身を置き　他の具材を飾って出来上がり"},{"id1":["53"\,280]\,"id2":["257"\,20]\,"id3":["205"\,10]\,"id4":["392"\,5]\,"id5":["558"\,15]},1
0,ツナとフルーツぶっかけ素麺,0,,japan/no_R45.jpg,{"step1":"汁気を切ったツナ缶とクリームチーズを混ぜておく。"\,"step2":"ミニトマトを半分に切る。キウイフルーツは銀杏切りにする。みかんの缶詰は汁気をきっておく。"\,"step3":"素麺をたっぷりの湯で表示時間通りに茹でる"\,"step4":"めんつゆと水を合わせて、それぞれの器に入れておく"\,"step5":"③の素麺をしっかりモミ洗いし冷水でしめ水気をよく切り④の器に盛る。"\,"step6":"⑤にクリームチーズ、ツナ缶を合わせておいたツナと②のフルーツを盛り付け出来上がり"},{"id1":["22"\,280]\,"id2":["350"\,9]\,"id3":["146"\,40]\,"id4":["660"\,45]\,"id5":["669"\,40]\,"id6":["443"\,15]\,"id7":["559"\,50]\,"id8":["707"\,50]\,"id9":["562"\,5]},1
0,イタリアン冷やし中華,0,\,3\,14\,,china/no_R10.jpg,{"step1":"トマトは１ｃｍ角に角切りカット"\,"step2":"小松菜は根部を軽く水洗い、根部カット、そして葉部は一口大にカットします。"\,"step3":"鍋にたっぷりのお湯を沸かし、中華麺を３分茹でます。"\,"step4":"フライパンにオリーブオイルを温め、挽き肉を投入。塩、コショーを振り炒めていきます。"\,"step5":"③中華麺は茹であがり後冷水でよく洗い、しめます"\,"step6":"③中華麺は茹であがり後冷水でよく洗い、しめます"\,"step7":"お皿に⑥→⑤→①の順に盛り付けましたら、冷やし中華のタレをまわし掛けます。"\,"step8":"最後にパルメザンチーズをふりかければ完成です"},{"id1":["46"\,120]\,"id2":["279"\,50]\,"id3":["423"\,100]\,"id4":["394"\,100]\,"id5":["568",150]\,"id6":["512"\,30]\,"id7":["530"\,5]},3
0,ツナとキュウリの簡単サラダうどん,0,\,3\,,japan/no_R11.jpg,{"step1":"冷凍うどんを袋のままレンジで３分加熱します。"\,"step2":"レンジで加熱している間に、キュウリを千切りにし、シーチキンの油を切っておく。"\,"step3":"解凍できたうどんを冷水で冷やし、キュウリとシーチキンをうどんの上に乗せる。"\,"step4":"最後に好みの濃さに調整しためんつゆを上からかけたら出来上がり"},{"id1":["46"\,245]\,"id2":["386"\,80]\,"id3":["145"\,80]\,"id4":["559"\,5]},1
0,ツナとブロッコリーのケチャップ焼きそば,0,\,3\,,china/no_R12.jpg,{"step1":"フライパンにオリーブ油、ニンニクを入れオイルを絞ったツナ缶、ある程度細かく切ったブロッコリーを加え炒める"\,"step2":"焼きそば麺を加えて炒め、塩胡椒、ケチャップを入れ、からめる。火を止め醤油少々加えてサッと混ぜて出来上がり"},{"id1":["46"\,120]\,"id2":["440"\,20]\,"id3":["146"\,70]\,"id4":["530"\,5]\,"id5":["540"\,60]\,"id6":["532"\,5]\,"id7":["512"\,5]\,"id8":["430"\,5]},3
0,明太子釜玉うどん,0,\,3\,5\,,japan/no_R13.jpg,{"step1":"明太子の皮は取り除く。冷凍うどんをレンジで表示通り温める。"\,"step2":"温めたうどんに、パルメザンチーズをかけ、めんつゆ大さじ1ずつまわしかける。"\,"step3":"お好きなトッピングをのせて完成"},{"id1":["54"\,245]\,"id2":["351"\,5]\,"id3":["559"\,15]\,"id4":["236"\,15]\,"id5":["547"\,5]\,"id6":["400"\,5]\,"id7":["320"\,5]\,"id8":["258"\,18]},1
0,蒸し鶏のっけ冷やしうどん,0,\,3\,,japan/no_R14.jpg,{"step1":"むね肉を厚さ半分にし、耐熱皿に皮を下にして塩と料理酒をかけラップをし、レンジ５００ｗで７分加熱する。"\,"step2":"出来たむね肉を冷まし、食べやすく切る。"\,"step3":"うどんは作り方を参照、冷やしなので水でさらし水切りします。"\,"step4":"うどんに蒸し鶏と野菜を盛りつけ、麺つゆをかける"},{"id1":["229"\,80]\,"id2":["530"\,5]\,"id3":["386"\,40]\,"id4":["400"\,10]\,"id5":["444"\,14]\,"id6":["443"\,20]\,"id7":["54"\,245]\,"id8":["559"\,5]},1
0,葱油そば,0,\,3\,19\,,china/no_R15.jpg,{"step1":"細ネギは4センチ程度に、唐辛子は中の種は取り除き、薄く輪切り"\,"step2":"カップに、醤油、酢、砂糖、ワイパーを入れる"\,"step3":"フライパンに多めに油をしき、葱と唐辛子を炒める。ネギが少し焦げて香ばしい香りがするまで炒めましょう"\,"step4":"３のネギ油を２のカップに入れかき混ぜ、お皿にもった麺にかけます"},{"id1":["46"\,120]\,"id2":["392"\,5]\,"id3":["529"\,5]\,"id4":["533"\,15]\,"id5":["534"\,7]\,"id6":["707"\,5]\,"id7":["528"\,2]\,"id8":["399"\,1]},3
0,牡蠣蕎麦,0,\,3\,19\,,japan/no_R16.jpg,{"step1":"鍋に水と昆布を入れる。"\,"step2":"鍋に火を入れ、沸騰寸前で昆布を取り出し、醤油、牡蠣を入れる。牡蠣がぷりぷりしたら火を止める。加熱し過ぎに注意"\,"step3":"牡蠣をいったん引き上げ、出汁の味をみて、必要なら醤油を足して味を調える"\,"step4":"フライパンにたっぷりの水（分量外）を入れて沸騰したら一気に蕎麦を入れる。規定の時間より1分早くザルにあける。"\,"step5":"鍋に蕎麦と牡蠣を入れてひと煮立ちさせたら出来上がり。"},{"id1":["565"\,5]\,"id2":["203"\,75]\,"id3":["532"\,15]\,"id4":["932"\,5]},1
0,高菜と明太子のクリームうどん,0,\,3\,5\,,japan/no_R17.jpg,{"step1":"うどんを茹でる"\,"step2":"茹でてる間にオリーブオイルをフライパンにひき、ベーコンを中火で軽く焦げ目がつくまで炒める。"\,"step3":"生クリームと塩を加える。"\,"step4":"生クリームがフツフツするかしないかぐらいでうどん・高菜・明太子を入れ、全体的に絡めたら完成。"},{"id1":["54"\,245]\,"id2":["364"\,100]\,"id3":["645"\,15]\,"id4":["236"\,15]\,"id5":["267"\,18]\,"id6":["512"\,15]\,"id7":["530"\,5]},1
0,納豆きんちゃくそば,0,\,4\,19\,,japan/no_R18.jpg,{"step1":"フライパンに油揚げ１枚が浸る程度のお湯を沸かし、油揚げの油抜きをして"\,"step2":"油抜きした油揚げを半分に切って"\,"step3":"油揚げの切り口を、皮が破れないようそっと指先を押し入れて広げて"\,"step4":"フライパンで油揚げ味付け用の調味料と水を煮立たせたら、油揚げを浸して1分ほど煮たら油揚げをひっくり返し"\,"step5":"４で油揚げをひっくり返してから１分ほど煮たら火を消して、そのまま熱を冷まし。"\,"step6":"納豆を容器の中で、かき混ぜて"\,"step7":"５の油揚げの熱が冷めたら、皮を広げて、６の納豆を入れて"\,"step8":"７で納豆を入れ終わったら、油揚げの皮を閉じて爪楊枝でとめ"\,"step9":"鍋でそばつゆを作り始めたら、その間に、縦に半分に切ったネギを小口切りして"\,"step10":"茹でたそばを器に盛り、そばつゆをたっぷり注いだところに８のきんちゃくとネギをのせれば出来上り"},{"id1":["53"\,120]\,"id2":["92"\,58]\,"id3":["85"\,40]\,"id4":["392"\,5]\,"id5":["532"\,7]\,"id6":["528"\,5]\,"id7":["559"\,120]},1
0,中華風 半田そうめん,0,\,3\,22\,,china/no_R19.jpg,{"step1":"鍋にたっぷりの水を入れて火にかけ、沸騰したら素麺とスナップ豌豆を入れて茹でる"\,"step2":"別の鍋に、他の料理で使った出汁※1を入れて中火にして、鶏がらスープの顆粒と塩コショウで味付けして挽き肉を入れ煮立たせる。"\,"step3":"ゆであがった素麺を器に盛り、スープを注ぎ、スナップ豌豆を麺の上に添える"},{"id1":["22"\,100]\,"id2":["312"\,25]\,"id3":["79"\,20]\,"id4":["514"\,200]\,"id5":["530"\,5]\,"id6":["569"\,7]\,"id7":["534"\,3]},3
0,明太子焼きうどん,0,\,3\,19\,,japan/no_R20.jpg,{"step1":"明太子をほぐし明太子、料理酒、醤油を合わせておきます。"\,"step2":"青シソは千切り、味付け海苔は袋のまま手で揉んでおきます。"\,"step3":"フライパンにマーガリンとレンジで解凍し温めたうどんを入れて火にかけバターを絡めます。①を加えて炒め合わせます"\,"step4":"器に盛り炒りゴマを散らし②を乗せます。"},{"id1":["54"\,245]\,"id2":["236"\,25]\,"id3":["500"\,30]\,"id4":["532"\,1]\,"id5":["553"\,15]\,"id6":["400"\,4]\,"id7":["320"\,2]\,"id8":["173"\,5]},1
0,あんかけナポリタン焼きそば,0,\,3\,22\,,western/no_R21.jpg,{"step1":"焼きそば麺は袋に軽く切れ目を入れレンジで1分程、加熱しておく"\,"step2":"フライパンに油を熱し、焼きそば麺以外の具材を炒める。"\,"step3":"具材に火が通ったら水、ケチャップ、鶏ガラスープの素を加えて軽く煮込む。フツフツと煮立ってきたら焼きそば麺を入れ、しっかりとほぐす。"\,"step4":"3に水溶き片栗粉を加えてとろみをつける。"\,"step5"味が薄いようだったら軽く塩コショーを加えて味をととのえたら完成"},{"id1":["46"\,120]\,"id2":["415"\,30]\,"id3":["437"\,35]\,"id4":["249"\,100]\,"id5":["540"\,25]\,"id6":["569"\,2]\,"id7":["530",5]\,"id8":["513"\,5]\,"id9":["529"\,5]},2
0,鮭の塩焼き,0,\,17\,,japan/fi_R54.jpg,{"step1":"鮭に酒をふり、塩をすりこんで、10分ほど放置。"\,"step2":"水分を拭き取り、グリルで焼けば出来上がり！"},{"id1":["125"\,100]\,"id2":["530"\,8]\,"id3":["500"\,5]},1
0,マグロのステーキ,0,\,19\,,japan/fi_R55.jpg,{"step1":"マグロの切り身に塩胡椒し、小麦粉をまぶす。余計な粉ははたいてください。"\,"step2":"フライパンが冷たいうちにオリーブオイルとニンニクを入れ、温める。香りが出てきたら、ニンニクをとりだす。"\,"step3":"マグロを焼く。"\,"step4":"マグロを頃合いをみて取り出し、フライパンにわさびとダシ醤油をくわえて、わさびのダマがなくなるまでのばし、ソースをつくる。"\,"step5":"皿に付け合わせの野菜とマグロをのせ、ソースをかければ出来上がり！"},{"id1":["125"\,100]\,"id2":["530"\,8]\,"id3":["500"\,5]},1
0,アジフライ,0,\,3\,5\,,japan/fi_R56.jpg,{"step1":"アジはゼイゴを取り除き開いて頭と内蔵と背骨を取り除く、腹骨も取り除いた方が食べやすい、背開き腹開きのどちらでも良いです"\,"step2":"水気はしっかりととって塩・胡椒、小麦粉を両面に振る"\,"step3":"溶いた卵液にぐぐらせる"\,"step4":"パン粉をまぶす"\,"step5":"180℃に熱した油でからっと揚げる衣が良いきつね色になったら油から出して完成"},{"id1":["100"\,122]\,"id2":["257"\,50]\,"id3":["12"\,6]\,"id4":["530"\,5]\,"id5":["523"\,5]\,"id6":["15"\,5]\,"id7":["529"\,5]},1
0,白身魚のフライ,0,\,3\,5\,,japan/fi_R57.jpg,{"step1":"白身魚の切り身に塩コショウをします。"\,"step2":"小麦粉、とき卵、パン粉を順につけて180度の油であげたら完成！"},{"id1":["139"\,100]\,"id2":["257"\,50]\,"id3":["523"\,3]\,"id4":["15"\,6]\,"id5":["12"\,6]},1
0,さんまの蒲焼,0,\,16\,19\,,japan/fi_R58.jpg,{"step1":"さんまを3枚おろしにして、半分に切る。"\,"step2":"両面に塩をふって少しおき、水気をペーパーでとる。片栗粉をまぶし、フライパンでカリっと焼く。"\,"step3":"両面に焼き色がついて、さんまに火が通ったら一旦火を止めて、余分な油をふきとる。"\,"step4":"調味料を加え、さんまに絡ませる。フライパンが熱すぎるとタレが焦げやすいので注意する。ゴマをふって完成！"},{"id1":["130"\,150]\,"id2":["531"\,15]\,"id3":["557"\,15]\,"id4":["500"\,15]\,"id5":["528"\,7]\,"id6":["173"\,3]\,"id7":["513"\,5]},1
0,鮭のムニエル,0,\,3\,17\,,western/fi_R59,{"step1":"鮭の切り身に触って骨に沿って抜き(抜かなくても良い)塩コショウ両面に振っておく"\,"step2":"フライパンにオリーブオイル、マーガリン(バター)入れ熱し塩コショウした鮭に小麦粉まぶして皮の方から中火で焼く"\,"step3":"皮に焼き目がこんがり付いたら裏返し火を弱火にし蓋をして3～4分位焼く"},{"id1":["125"\,100]\,"id2":["512"\,30]\,"id3":["553"\,30]\,"id4":["530"\,5]\,"id5":["534"\,5]\,"id6":["15"\,5]\,"id7":["528"\,5]},2
0,海鮮丼,0,\,19\,,japan/fi_R60.jpg,{"step1":"ボールに醤油とみりんをまぜる。"\,"step2":"マグロやサーモン、甘エビなどの白身魚以外を1に入れて10分以上浸ける。"\,"step3":"炊いたご飯に刻み海苔を敷いて、2のたれだけ軽くかける。"\,"step4":"2で浸けたお刺身と浸けていないお刺身を全てご飯の上に並べたら全体に2のたれをかけて、お好みで刻んだ大葉をのせて完成♪"},{"id1":["158"\,100]\,"id2":["200"\,50]\,"id3":["197"\,50]\,"id4":["400"\,3]\,"id5":["320"\,3]\,"id6":["531"\,22]\,"id7":["557"\,22]\,"id8":["49"\,200]},1
0,鉄火丼,0,\,16\,19\,,japan/fi_R61.jpg,{"step1":"お刺身のマグロの切り身を用意します！食べやすい大きさにカットします！"\,"step2":"醤油・みりん・料理酒の調味料を合わせてマグロに絡めます！少し揉むように馴染ませてからラップをして30分ほど漬け込みます！"\,"step3":"丼にご飯を盛り、漬け込んだマグロを綺麗に盛り付け、白ゴマ、青ネギ、韓国のりをトッピングして出来上がりです！"},{"id1":["158"\,100]\,"id2":["531"\,15]\,"id3":["557"\,15]\,"id4":["500"\,15]\,"id5":["562"\,5]\,"id6":["173"\,3]},1
0,魚の煮つけ,0,\,19\,,japan/fi_R62.jpg,{"step1":"いわしは熱湯を回しかけ、きれいに洗っておく。"\,"step2":"フライパンに調味料を煮たたせいわしを入れる。"\,"step3":"アルミホイルを落としぶたのかわりにして15分ほど煮る。"\,"step4":"煮汁が半分くらいになったら火を止める。"\,"step5":"食べる直前にあたためてできあがり"},{"id1":["110"\,60]\,"id2":["528"\,25]\,"id3":["531"\,25]\,"id4":["500"\,25]},1
0,ぶりの竜田揚げ,0,\,19\,,japan/fi_R63.jpg,{"step1":"ぶりを一口大に切り分ける"\,"step2":"醤油、砂糖、料理酒、生姜、おろしにんにくを混ぜ合わせ、鰤を漬け込む"\,"step3":"片栗粉をまぶし、フライパンに油を薄く引いて揚げ焼きに。"},{"id1":["154"\,200]\,"id2":["500"\,15]\,"id3":["528"\,15]\,"id4":["532"\,15]\,"id5":["404"\,2]\,"id6":["430"\,2]\,"id7":["513"\,7]\,"id8":["529"\,15]},1
0,いわしのつみれ汁,0,\,19\,,japan/fi_R64.jpg,{"step1":"いわしの下準備は、頭を落として、はらわたを取り、よく洗って水けをとる。手開きにして、中骨とひれを取ります。"\,"step2":"大根、ニンジンはいちょう切りに。ネギは小口切りに。"\,"step3":"フードプロセッサーにいわしと味噌、しょうが汁、小麦粉、料理酒、塩の調味料を入れて、１分ほど回す。様子をみながらやってみてください。"\,"step4":"水に大根と人参を入れ、火が通ったら粉末だしを入れ、その中にスプーンですくったいわしを落とし、弱火で10分ほど煮る。"\,"step5":"いわしが浮いていればOKです。味噌、ネギを入れて、沸騰する前に火を止める。"\,"step6":"お好みで七味などを入れ、完成です"},{"id1":["110"\,100]\,"id2":["556"\,3]\,"id3":["404"\,1]\,"id4":["14"\,3]\,"id5":["411"\,15]\,"id6":["392"\,5]\,"id7":["429"\,15]\,"id8":["708"\,40]},1
0,白身魚のピリ辛揚げ,0,\,19\,,japan/fi_R65.jpg,{"step1":"白身魚（皮なし）は食べやすい大きさに切り水気を拭き取る。"\,"step2":"ジプロックに1と醤油、酒、みりん、豆板醤、ニンニクチューブの調味料を入れ、魚が崩れない様に優しくもみ込み、冷蔵庫で１～3時間ほど寝かす。"\,"step3":"2に片栗粉をしっかりとまぶし、揚げ油でカラリと揚げる。"},{"id1":["144"\,125]\,"id2":["532"\,7]\,"id3":["500"\,5]\,"id4":["557"\,5]\,"id5":["539"\,5]\,"id6":["430"\,3]\,"id7":["513"\,5]},1
0,金目鯛の煮付け,0,\,19\,,japan/fi_R66.jpg,{"step1":"生姜は細切りにする。切身は皮目に包丁でばってんの切り込みを入れる。"\,"step2":"フライパンに調味料全てを入れて煮立ったら、１を入れて落とし蓋をして弱火で10分煮る。"\,"step3":"落とし蓋をとり、中火にして煮汁をかけながら1分ほど煮詰め、煮汁が程よく煮詰まったら器に盛る。"},{"id1":["139"\,100]\,"id2":["708"\,22]\,"id3":["500"\,7]\,"id4":["532"\,7]\,"id5":["528"\,7]\,"id6":["404"\,3]\,"id7":["557"\,8]},1
0,ブリの照り焼き,0,\,19\,,japan/fi_R67.jpg,{"step1":"ブリの両面に塩を振り15～20分置く。料理酒、醤油、みりん、砂糖を合わせておく"\,"step2":"出てきた水分はキッチンペーパーでふき取り小麦粉をまぶす。余分な小麦粉ははたき落とす。"\,"step3":"フライパンに油大さじ1(分量外)を熱し盛り付けた時に上になる方からブリを焼いていく。(中火）"\,"step4":"ブリの縁が白くなってきたら"\,"step5":"ひっくり返し裏面を焼く。余分な油をキッチンペーパーでふき取り合わせておいた調味料を入れる。"\,"step6":"焦げ付かないようにフライパンを揺すりながらタレをすくい回しかける。"\,"step7":"とろみが出てきて最後に、盛り付ける時にかけるタレを残し火を止める。お皿に盛り付けタレをかけて完成です"},{"id1":["154"\,100]\,"id2":["530"\,3]\,"id3":["15"\,3]\,"id4":["500"\,7]\,"id5":["532"\,7]\,"id6":["557"\,7]\,"id7":["528"\,7]},1
0,タラのおろし煮,0,\,19\,,japan/fi_R68.jpg,{"step1":"鱈に軽く塩を振って10分くらい置き、出てきた水分をキッチンペーパーで拭き取ります。"\,"step2":"鍋に醤油、料理酒、みりん、だし汁を入れて火にかけ、煮立ったら鱈と大根おろしを入れます。落としぶたをして中弱火で10分ほど煮たら出来上がり"\,"step3":"お好みで薬味を乗せて食べるとより美味しくなります"},{"id1":["144"\,100]\,"id2":["411"\,5]\,"id3":["532"\,15]\,"id4":["500"\,15]\,"id5":["557"\,7]\,"id6":["514"\,150]},1
0,塩サバのネギ味噌焼き,0,\,19\,,japan/fi_R69.jpg,{"step1":"塩さばはお好みで骨を取り除き、半分に切って酒をかけておく。"\,"step2":"長ネギをみじん切りにする。"\,"step3":"1のさばの水気を拭き取って230℃で7分くらい焼く。"\,"step4":"2のしめじと長ネギをボウルに入れて味噌、みりん、マヨネ?ズと混ぜ合わせておく。"\,"step5":"さばが焼けたら4をのせて230℃で3分くらい焼いて完成です。"},{"id1":["216"\,100]\,"id2":["500"\,8]\,"id3":["424"\,3]\,"id4":["556"\,15]\,"id5":["557"\,3]\,"id6":["555"\,3]},1
0,爽やかタコマリネ,1,,western/fi_R103.jpg,{"step1":"タコの足は５ｍｍ程度の薄切りに。玉葱とプチトマトはみじん切りにする。"\,"step2":"器にオリーブオイル、酢、塩を入れて泡立器でとろみがつくまで混ぜる。"\,"step3":"全ての材料を２に入れ、よく混ぜて冷蔵庫で３０分ほど冷やして出来上がり"},{"id1":["217"\,60]\,"id2":["415"\,75]\,"id3":["435"\,30]\,"id4":["512"\,50]\,"id5":["534"\,50]},2
0,いかめし,0,\,9\,16\,19\,,japan/fi_R102.jpg,{"step1":"もち米と白米は洗って混ぜ合わせ15～30分程水に浸しざるにあける。"\,"step2":"いかは胴体と足をわける。胴体にある骨と残っている内臓を取り除いてきれいに洗う。"\,"step3":"いかげそは目の下から切り取り嘴を取り除く。"\,"step4":"いかの胴体に1のもち米を7分目まで詰めてようじで止める。"\,"step5":"炊飯器に4のいかとだし、醤油、みりん、料理酒、を入れて炊飯スタート"\,"step6":"炊けたらいかを取りだす。"\,"step7":"鍋に煮汁を適量とり水溶き片栗粉でとろみをつけていかめしにかける。"\,"step8":"千切り生姜を添えたら完成。"},{"id1":["197"\,357]\,"id2":["710"\,50]\,"id3":["49"\,40]\,"id4":["565"\,120]\,"id5":["531"\,12]\,"id6":["557"\,12]\,"id7":["500"\,12]\,"id8":["513"\,5]\,"id9":["404"\,5]},1
0,カレイの煮つけ,0,\,19\,,japan/fi_R101.jpg,{"step1":"カレイはさっと洗い、キッチンペーパーで水気をふき取る。"\,"step2":"フライパンに、酒とカレイを入れ、ひと煮立ちさせる。"\,"step3":"しょうゆ・みりん・砂糖・生姜を加え、更にひと煮立ちさせる。"\,"step4":"落し蓋orアルミホイルをかぶせ、中火で７～８分煮る"\,"step5":"途中で、煮汁を味見してみて下さい。お好みで醤油・砂糖を足して下さい。"\,"step6":"落し蓋orアルミホイルを取り、中火～弱火で１分煮る"},{"id1":["118"\,173]\,"id2":["500"\,75]\,"id3":["557"\,40]\,"id4":["531"\,40]\,"id5":["528"\,8]\,"id6":["404"\,5]},1
0,かんたん！カツオのにんにくおろし玉ねぎ煮,1,\,19\,,japan/fi_R100.jpg,{"step1":"鰹は、一口大に切る。"\,"step2":"小鍋に煮汁の材料を入れて、火にかける"\,"step3":"沸騰したら、鰹を入れる。"\,"step4":"再び沸騰したら、蓋をして、弱火で10分煮る。"},{"id1":["115"\,100]\,"id2":["415"\,50]\,"id3":["430"\,15]\,"id4":["404"\,15]\,"id5":["531"\,15]\,"id6":["500"\,15]\,"id7":["557"\,15]},1
0,ホタテとブロッコリーの塩あんかけ炒め,0,\,16\,,china/fi_R99.jpg,{"step1":"ブロッコリーの花蕾は小房に分け、茎は皮をむいて拍子切り、ほたては側面から2等分にカットしておく"\,"step2":"サラダ油を熱したフライパンににんにくを入れて炒め、香りが立ち込めたらにんにくを取り出しておく"\,"step3":"水とウエイパーをボウルに入れ、レンジで約20秒加熱し、混ぜ合わせておく"\,"step4":"2のフライパンに、ブロッコリーに茎を入れて炒め、茎に火が通ったら花蕾・ほたてを加え、酒を振ってフタをして約30秒蒸らす"\,"step5":"4に2のにんにく・水、ウエイパーを加えて全体に絡め、片栗粉、水を加えてとろみをつけて、塩コショウで味を整え、ごま油を回し入れる"\,"step6":"お皿に盛り付け、糸唐辛子をトッピングしたら、出来上がり"},{"id1":["231"\,100]\,"id2":["440"\,15]\,"id3":["529"\,8]\,"id4":["430"\,5]\,"id5":["707"\,3]\,"id6":["708"\,25]\,"id7":["513"\,8]\,"id8":["523"\,5]\,"id9":["524"\,3]\,"id10":["420"\,5]},3
0,イカとキャベツのオリーブガーリック炒め,0,,western/fi_R98.jpg,{"step1":"オリーブオイルを熱し、刻んだニンニクを炒める。"\,"step2":"適当な大きさに切ったキャベツを加え、中火で炒める。"\,"step3":"イカからわたを外し、ゲソと胴他、わた以外の部分を適当な大きさに切る。キャベツがしんなりしてきたら、切ったイカを加える。"\,"step4":"イカに火が通ってきたら、わたを絞って入れ、全体的に混ぜ合わせる。"\,"step5":"塩胡椒で味を整え、完成。"},{"id1":["197"\,100]\,"id2":["385"\,100]\,"id3":["430"\,5]\,"id4":["512"\,15]\,"id5":["522"\,5]},2
0,太刀魚のバターしょうゆ焼き,0,\,3\,19\,,japan/fi_R97.jpg,{"step1":"太刀魚１匹を４つに切り、両面、斜めに包丁をいれる。"\,"step2":"両面にハーブソルトとこしょうをする。"\,"step3":"小麦粉をまぶす。"\,"step4":"フライパンにバター大さじ1.5はいくらい入れる。"\,"step5":"バターが半分溶けたくらいで、太刀魚を並べて、両面こんがり焼く。"\,"step6":"両面が焼けたら、お皿に取り出し、フライパンにバター大さじ１くらいをいれる。"\,"step7":"フライパンに、レモン汁としょうゆをいれ、少し煮詰める"\,"step8":"⑦を焼いた太刀魚にかけて、出来上がり"},{"id1":["141"\,98]\,"id2":["15"\,5]\,"id3":["530"\,5]\,"id4":["523"\,5]\,"id5":["547"\,15]\,"id6":["489"\,15]\,"id7":["531"\,15]},1
0,サバと小松菜の生姜炒め,0,\,3\,18\,19\,,japan/fi_R96.jpg,{"step1":"さばは１枚を４つにそぎ切りにして下処理用の料理酒、塩をかけて１０分位置いておきます。"\,"step2":"サバの水けをキッチンペーパーなどできれいにふき取って、両面に茶こしなどで小麦粉を薄くかけて焼きます。小松菜は3ｃｍくらいに切り茎と葉に分ける。しょうがは千切り。"\,"step3":"フライパンを熱しごま油を入れさばを両面こんがりと焼きます。お皿にキッチンペーパーを敷いていったん取り出しておきます。"\,"step4":"フライパンをきれいにして、ごま油を入れしょうがの香りが出るまで炒め、小松菜の茎を軽く炒めたら３番のさばを戻し入れ醤油、料理酒と小松菜の葉を混ぜて２～３回あおって出来上がりです。"},{"id1":["126"\,100]\,"id2":["394"\,20]\,"id3":["500"\,5]\,"id4":["531"\,8]\,"id5":["524"\,8]\,"id6":["500"\,5]\,"id7":["530"\,8]\,"id8":["15"\,5]},1
0,ホタテの炊き込みご飯,0,\,19\,,japan/fi_R95.jpg,{"step1":"お米をといでザルに上げておく"\,"step2":"ごぼう・人参を切り水の中へ入れあくをとる油揚げは湯通しし油抜きしたら細く切る"\,"step3":"水、かつおだし、醤油、料理酒、砂糖、みりん、おろし生姜を鍋に入れ沸いたらホタテごぼう、にんじんを入れて味を付け冷ます"\,"step4":"お米をお釜に入れ、☆の汁を２合に合わせ入れたら具を入れる"\,"step5":"炊飯器のスイッチを入れ炊く"\,"step6":"炊き上がったら良く混ぜて出来上がり"},{"id1":["49"\,150]\,"id2":["231"\,40]\,"id3":["393"\,15]\,"id4":["429"\,10]\,"id5":["92"\,30]\,"id6":["708"\,300]\,"id7":["514"\,8]\,"id8":["531"\,30]\,"id9":["500"\,8]\,"id10":["528"\,15]\,"id11":["557"\,15]\,"id12":["404"\,5]},1
